fir_filters/low_pass_direct_graph/simulation/qsim/low_pass_direct_graph.msim.vcd
$comment
	File created using the following command:
		vcd file low_pass_direct_graph.msim.vcd -direction
$end
$date
	Wed Jul 02 17:01:27 2025
$end
$version
	ModelSim Version 10.1d
$end
$timescale
	1ps
$end
$scope module low_pass_direct_graph_vlg_vec_tst $end
$var reg 1 ! clk $end
$var reg 1 " rst $end
$var reg 14 # sig_in [13:0] $end
$var wire 1 $ sig_out [13] $end
$var wire 1 % sig_out [12] $end
$var wire 1 & sig_out [11] $end
$var wire 1 ' sig_out [10] $end
$var wire 1 ( sig_out [9] $end
$var wire 1 ) sig_out [8] $end
$var wire 1 * sig_out [7] $end
$var wire 1 + sig_out [6] $end
$var wire 1 , sig_out [5] $end
$var wire 1 - sig_out [4] $end
$var wire 1 . sig_out [3] $end
$var wire 1 / sig_out [2] $end
$var wire 1 0 sig_out [1] $end
$var wire 1 1 sig_out [0] $end
$var wire 1 2 sampler $end
$scope module i1 $end
$var wire 1 3 gnd $end
$var wire 1 4 vcc $end
$var wire 1 5 unknown $end
$var tri1 1 6 devclrn $end
$var tri1 1 7 devpor $end
$var tri1 1 8 devoe $end
$var wire 1 9 sig_in[1]~input_o $end
$var wire 1 : sig_in[0]~input_o $end
$var wire 1 ; sig_out[13]~output_o $end
$var wire 1 < sig_out[12]~output_o $end
$var wire 1 = sig_out[11]~output_o $end
$var wire 1 > sig_out[10]~output_o $end
$var wire 1 ? sig_out[9]~output_o $end
$var wire 1 @ sig_out[8]~output_o $end
$var wire 1 A sig_out[7]~output_o $end
$var wire 1 B sig_out[6]~output_o $end
$var wire 1 C sig_out[5]~output_o $end
$var wire 1 D sig_out[4]~output_o $end
$var wire 1 E sig_out[3]~output_o $end
$var wire 1 F sig_out[2]~output_o $end
$var wire 1 G sig_out[1]~output_o $end
$var wire 1 H sig_out[0]~output_o $end
$var wire 1 I clk~input_o $end
$var wire 1 J clk~inputclkctrl_outclk $end
$var wire 1 K sig_in[13]~input_o $end
$var wire 1 L rst~input_o $end
$var wire 1 M rst~inputclkctrl_outclk $end
$var wire 1 N inst5|inst~q $end
$var wire 1 O inst|inst~q $end
$var wire 1 P inst2|inst~q $end
$var wire 1 Q sig_in[12]~input_o $end
$var wire 1 R inst5|inst1~q $end
$var wire 1 S inst|inst1~q $end
$var wire 1 T sig_in[11]~input_o $end
$var wire 1 U inst5|inst2~feeder_combout $end
$var wire 1 V inst5|inst2~q $end
$var wire 1 W inst|inst2~q $end
$var wire 1 X sig_in[10]~input_o $end
$var wire 1 Y inst5|inst3~q $end
$var wire 1 Z inst|inst3~feeder_combout $end
$var wire 1 [ inst|inst3~q $end
$var wire 1 \ sig_in[9]~input_o $end
$var wire 1 ] inst5|inst4~feeder_combout $end
$var wire 1 ^ inst5|inst4~q $end
$var wire 1 _ inst|inst4~feeder_combout $end
$var wire 1 ` inst|inst4~q $end
$var wire 1 a sig_in[8]~input_o $end
$var wire 1 b inst5|inst5~q $end
$var wire 1 c inst|inst5~q $end
$var wire 1 d sig_in[7]~input_o $end
$var wire 1 e inst5|inst6~q $end
$var wire 1 f inst|inst6~q $end
$var wire 1 g sig_in[6]~input_o $end
$var wire 1 h inst5|inst7~q $end
$var wire 1 i inst|inst7~q $end
$var wire 1 j sig_in[5]~input_o $end
$var wire 1 k inst5|inst8~feeder_combout $end
$var wire 1 l inst5|inst8~q $end
$var wire 1 m inst|inst8~feeder_combout $end
$var wire 1 n inst|inst8~q $end
$var wire 1 o sig_in[4]~input_o $end
$var wire 1 p inst5|inst9~q $end
$var wire 1 q inst|inst9~q $end
$var wire 1 r sig_in[3]~input_o $end
$var wire 1 s inst5|inst10~q $end
$var wire 1 t inst|inst10~feeder_combout $end
$var wire 1 u inst|inst10~q $end
$var wire 1 v sig_in[2]~input_o $end
$var wire 1 w inst5|inst11~feeder_combout $end
$var wire 1 x inst5|inst11~q $end
$var wire 1 y inst|inst11~q $end
$var wire 1 z inst4|auto_generated|op_1~1 $end
$var wire 1 { inst4|auto_generated|op_1~3 $end
$var wire 1 | inst4|auto_generated|op_1~5 $end
$var wire 1 } inst4|auto_generated|op_1~7 $end
$var wire 1 ~ inst4|auto_generated|op_1~9 $end
$var wire 1 !! inst4|auto_generated|op_1~11 $end
$var wire 1 "! inst4|auto_generated|op_1~13 $end
$var wire 1 #! inst4|auto_generated|op_1~15 $end
$var wire 1 $! inst4|auto_generated|op_1~17 $end
$var wire 1 %! inst4|auto_generated|op_1~19 $end
$var wire 1 &! inst4|auto_generated|op_1~21 $end
$var wire 1 '! inst4|auto_generated|op_1~23 $end
$var wire 1 (! inst4|auto_generated|op_1~25 $end
$var wire 1 )! inst4|auto_generated|op_1~26_combout $end
$var wire 1 *! inst4|auto_generated|op_1~24_combout $end
$var wire 1 +! inst4|auto_generated|op_1~22_combout $end
$var wire 1 ,! inst4|auto_generated|op_1~20_combout $end
$var wire 1 -! inst4|auto_generated|op_1~18_combout $end
$var wire 1 .! inst2|inst1~q $end
$var wire 1 /! inst2|inst2~q $end
$var wire 1 0! inst4|auto_generated|op_1~16_combout $end
$var wire 1 1! inst2|inst3~q $end
$var wire 1 2! inst4|auto_generated|op_1~14_combout $end
$var wire 1 3! inst4|auto_generated|op_1~12_combout $end
$var wire 1 4! inst2|inst4~feeder_combout $end
$var wire 1 5! inst2|inst4~q $end
$var wire 1 6! inst2|inst5~q $end
$var wire 1 7! inst4|auto_generated|op_1~10_combout $end
$var wire 1 8! inst2|inst6~q $end
$var wire 1 9! inst4|auto_generated|op_1~8_combout $end
$var wire 1 :! inst4|auto_generated|op_1~6_combout $end
$var wire 1 ;! inst2|inst7~q $end
$var wire 1 <! inst2|inst8~feeder_combout $end
$var wire 1 =! inst2|inst8~q $end
$var wire 1 >! inst4|auto_generated|op_1~4_combout $end
$var wire 1 ?! inst2|inst9~q $end
$var wire 1 @! inst4|auto_generated|op_1~2_combout $end
$var wire 1 A! inst4|auto_generated|op_1~0_combout $end
$var wire 1 B! inst2|inst10~q $end
$var wire 1 C! inst9|auto_generated|result[0]~1 $end
$var wire 1 D! inst9|auto_generated|result[1]~3 $end
$var wire 1 E! inst9|auto_generated|result[2]~5 $end
$var wire 1 F! inst9|auto_generated|result[3]~7 $end
$var wire 1 G! inst9|auto_generated|result[4]~9 $end
$var wire 1 H! inst9|auto_generated|result[5]~11 $end
$var wire 1 I! inst9|auto_generated|result[6]~13 $end
$var wire 1 J! inst9|auto_generated|result[7]~15 $end
$var wire 1 K! inst9|auto_generated|result[8]~17 $end
$var wire 1 L! inst9|auto_generated|result[9]~19 $end
$var wire 1 M! inst9|auto_generated|result[10]~21 $end
$var wire 1 N! inst9|auto_generated|result[11]~23 $end
$var wire 1 O! inst9|auto_generated|result[12]~25 $end
$var wire 1 P! inst9|auto_generated|result[13]~26_combout $end
$var wire 1 Q! inst9|auto_generated|result[12]~24_combout $end
$var wire 1 R! inst9|auto_generated|result[11]~22_combout $end
$var wire 1 S! inst9|auto_generated|result[10]~20_combout $end
$var wire 1 T! inst9|auto_generated|result[9]~18_combout $end
$var wire 1 U! inst9|auto_generated|result[8]~16_combout $end
$var wire 1 V! inst9|auto_generated|result[7]~14_combout $end
$var wire 1 W! inst9|auto_generated|result[6]~12_combout $end
$var wire 1 X! inst9|auto_generated|result[5]~10_combout $end
$var wire 1 Y! inst9|auto_generated|result[4]~8_combout $end
$var wire 1 Z! inst9|auto_generated|result[3]~6_combout $end
$var wire 1 [! inst9|auto_generated|result[2]~4_combout $end
$var wire 1 \! inst9|auto_generated|result[1]~2_combout $end
$var wire 1 ]! inst9|auto_generated|result[0]~0_combout $end
$upscope $end
$upscope $end
$enddefinitions $end
#0
$dumpvars
0!
0"
b0 #
01
00
0/
0.
0-
0,
0+
0*
0)
0(
0'
0&
0%
0$
x2
03
14
x5
16
17
18
09
0:
0;
0<
0=
0>
0?
0@
0A
0B
0C
0D
0E
0F
0G
0H
0I
0J
0K
0L
0M
0N
0O
0P
0Q
0R
0S
0T
0U
0V
0W
0X
0Y
0Z
0[
0\
0]
0^
0_
0`
0a
0b
0c
0d
0e
0f
0g
0h
0i
0j
0k
0l
0m
0n
0o
0p
0q
0r
0s
0t
0u
0v
0w
0x
0y
0z
1{
0|
1}
0~
1!!
0"!
1#!
0$!
1%!
0&!
1'!
0(!
0)!
0*!
0+!
0,!
0-!
0.!
0/!
00!
01!
02!
03!
04!
05!
06!
07!
08!
09!
0:!
0;!
0<!
0=!
0>!
0?!
0@!
0A!
0B!
0C!
1D!
0E!
1F!
0G!
1H!
0I!
1J!
0K!
1L!
0M!
1N!
0O!
0P!
0Q!
0R!
0S!
0T!
0U!
0V!
0W!
0X!
0Y!
0Z!
0[!
0\!
0]!
$end
#20000
1"
1L
1M
02
#25000
1!
1I
1J
12
#50000
0!
0I
0J
02
#75000
1!
1I
1J
12
#100000
0"
0!
0L
0I
0M
0J
02
#125000
1!
1I
1J
12
#150000
0!
0I
0J
02
#175000
1!
1I
1J
12
#200000
0!
0I
0J
02
#210000
b10000000000 #
b11000000000 #
b11100000000 #
b11110000000 #
b11111000000 #
b11111010000 #
1o
1g
1d
1a
1\
1X
12
1]
#225000
1!
1I
1J
02
1p
1h
1e
1b
1^
1Y
1@!
1:!
19!
17!
13!
1_
12!
1Z
1\!
1Z!
1Y!
1X!
1W!
1V!
1G
1E
1D
1C
1B
1A
10
1.
1-
1,
1+
1*
#250000
0!
0I
0J
12
#270000
b1111010000 #
b111010000 #
b11010000 #
b1010000 #
b10000 #
b0 #
0o
0g
0d
0a
0\
0X
02
0]
#275000
1!
1I
1J
12
1q
0p
1i
0h
1f
0e
1c
0b
1`
0^
1[
0Y
1>!
0@!
0:!
14!
0_
10!
0Z
1[!
0\!
0Z!
1U!
1F
0G
0E
1@
1/
00
0.
1)
#300000
0!
0I
0J
02
#325000
1!
1I
1J
12
1?!
1;!
18!
16!
15!
11!
0q
0i
0f
0c
0`
0[
1G!
0H!
1I!
0J!
0>!
09!
07!
03!
04!
02!
00!
1\!
1Z!
0Y!
0X!
0W!
0V!
0G!
1G
1E
0D
0C
0B
0A
10
1.
0-
0,
0+
0*
0[!
1Y!
1H!
0F
1D
0/
1-
1X!
0I!
1C
1,
1W!
1J!
1B
1+
1V!
1A
1*
0U!
0@
0)
#350000
0!
0I
0J
02
#375000
1!
1I
1J
12
0?!
0;!
08!
06!
05!
01!
0\!
0Z!
0Y!
0X!
0W!
0V!
0G
0E
0D
0C
0B
0A
00
0.
0-
0,
0+
0*
#400000
0!
0I
0J
02
#425000
1!
1I
1J
12
#450000
0!
0I
0J
02
#475000
1!
1I
1J
12
#500000
0!
0I
0J
02
#525000
1!
1I
1J
12
#550000
0!
0I
0J
02
#575000
1!
1I
1J
12
#600000
0!
0I
0J
02
#625000
1!
1I
1J
12
#650000
0!
0I
0J
02
#675000
1!
1I
1J
12
#700000
0!
0I
0J
02
#725000
1!
1I
1J
12
#750000
0!
0I
0J
02
#775000
1!
1I
1J
12
#800000
0!
0I
0J
02
#825000
1!
1I
1J
12
#850000
0!
0I
0J
02
#875000
1!
1I
1J
12
#900000
0!
0I
0J
02
#925000
1!
1I
1J
12
#950000
0!
0I
0J
02
#975000
1!
1I
1J
12
#1000000
0!
0I
0J
02
#1025000
1!
1I
1J
12
#1050000
0!
0I
0J
02
#1075000
1!
1I
1J
12
#1100000
0!
0I
0J
02
#1125000
1!
1I
1J
12
#1150000
0!
0I
0J
02
#1175000
1!
1I
1J
12
#1200000
0!
0I
0J
02
#1225000
1!
1I
1J
12
#1250000
0!
0I
0J
02
#1275000
1!
1I
1J
12
#1300000
0!
0I
0J
02
#1325000
1!
1I
1J
12
#1350000
0!
0I
0J
02
#1375000
1!
1I
1J
12
#1400000
0!
0I
0J
02
#1425000
1!
1I
1J
12
#1450000
0!
0I
0J
02
#1475000
1!
1I
1J
12
#1500000
0!
0I
0J
02
#1525000
1!
1I
1J
12
#1550000
0!
0I
0J
02
#1575000
1!
1I
1J
12
#1600000
0!
0I
0J
02
#1625000
1!
1I
1J
12
#1650000
0!
0I
0J
02
#1675000
1!
1I
1J
12
#1700000
0!
0I
0J
02
#1725000
1!
1I
1J
12
#1750000
0!
0I
0J
02
#1775000
1!
1I
1J
12
#1800000
0!
0I
0J
02
#1825000
1!
1I
1J
12
#1850000
0!
0I
0J
02
#1875000
1!
1I
1J
12
#1900000
0!
0I
0J
02
#1925000
1!
1I
1J
12
#1950000
0!
0I
0J
02
#1975000
1!
1I
1J
12
#2000000
0!
0I
0J
02
#2025000
1!
1I
1J
12
#2050000
0!
0I
0J
02
#2075000
1!
1I
1J
12
#2100000
0!
0I
0J
02
#2125000
1!
1I
1J
12
#2150000
0!
0I
0J
02
#2175000
1!
1I
1J
12
#2200000
0!
0I
0J
02
#2225000
1!
1I
1J
12
#2250000
0!
0I
0J
02
#2275000
1!
1I
1J
12
#2300000
0!
0I
0J
02
#2325000
1!
1I
1J
12
#2350000
0!
0I
0J
02
#2375000
1!
1I
1J
12
#2400000
0!
0I
0J
02
#2425000
1!
1I
1J
12
#2450000
0!
0I
0J
02
#2475000
1!
1I
1J
12
#2500000
0!
0I
0J
02
#2525000
1!
1I
1J
12
#2550000
0!
0I
0J
02
#2575000
1!
1I
1J
12
#2600000
0!
0I
0J
02
#2625000
1!
1I
1J
12
#2650000
0!
0I
0J
02
#2675000
1!
1I
1J
12
#2700000
0!
0I
0J
02
#2725000
1!
1I
1J
12
#2750000
0!
0I
0J
02
#2775000
1!
1I
1J
12
#2800000
0!
0I
0J
02
#2825000
1!
1I
1J
12
#2850000
0!
0I
0J
02
#2875000
1!
1I
1J
12
#2900000
0!
0I
0J
02
#2925000
1!
1I
1J
12
#2950000
0!
0I
0J
02
#2975000
1!
1I
1J
12
#3000000
0!
0I
0J
02
#3025000
1!
1I
1J
12
#3050000
0!
0I
0J
02
#3075000
1!
1I
1J
12
#3100000
0!
0I
0J
02
#3125000
1!
1I
1J
12
#3150000
0!
0I
0J
02
#3175000
1!
1I
1J
12
#3200000
0!
0I
0J
02
#3225000
1!
1I
1J
12
#3250000
0!
0I
0J
02
#3275000
1!
1I
1J
12
#3300000
0!
0I
0J
02
#3325000
1!
1I
1J
12
#3350000
0!
0I
0J
02
#3375000
1!
1I
1J
12
#3400000
0!
0I
0J
02
#3425000
1!
1I
1J
12
#3450000
0!
0I
0J
02
#3475000
1!
1I
1J
12
#3500000
0!
0I
0J
02
#3525000
1!
1I
1J
12
#3550000
0!
0I
0J
02
#3575000
1!
1I
1J
12
#3600000
0!
0I
0J
02
#3625000
1!
1I
1J
12
#3650000
0!
0I
0J
02
#3675000
1!
1I
1J
12
#3700000
0!
0I
0J
02
#3725000
1!
1I
1J
12
#3750000
0!
0I
0J
02
#3775000
1!
1I
1J
12
#3800000
0!
0I
0J
02
#3825000
1!
1I
1J
12
#3850000
0!
0I
0J
02
#3875000
1!
1I
1J
12
#3900000
0!
0I
0J
02
#3925000
1!
1I
1J
12
#3950000
0!
0I
0J
02
#3975000
1!
1I
1J
12
#4000000
0!
0I
0J
02
#4025000
1!
1I
1J
12
#4050000
0!
0I
0J
02
#4075000
1!
1I
1J
12
#4100000
0!
0I
0J
02
#4125000
1!
1I
1J
12
#4150000
0!
0I
0J
02
#4175000
1!
1I
1J
12
#4200000
0!
0I
0J
02
#4225000
1!
1I
1J
12
#4250000
0!
0I
0J
02
#4275000
1!
1I
1J
12
#4300000
0!
0I
0J
02
#4325000
1!
1I
1J
12
#4350000
0!
0I
0J
02
#4375000
1!
1I
1J
12
#4400000
0!
0I
0J
02
#4425000
1!
1I
1J
12
#4450000
0!
0I
0J
02
#4475000
1!
1I
1J
12
#4500000
0!
0I
0J
02
#4525000
1!
1I
1J
12
#4550000
0!
0I
0J
02
#4575000
1!
1I
1J
12
#4600000
0!
0I
0J
02
#4625000
1!
1I
1J
12
#4650000
0!
0I
0J
02
#4675000
1!
1I
1J
12
#4700000
0!
0I
0J
02
#4725000
1!
1I
1J
12
#4750000
0!
0I
0J
02
#4775000
1!
1I
1J
12
#4800000
0!
0I
0J
02
#4825000
1!
1I
1J
12
#4850000
0!
0I
0J
02
#4875000
1!
1I
1J
12
#4900000
0!
0I
0J
02
#4925000
1!
1I
1J
12
#4950000
0!
0I
0J
02
#4975000
1!
1I
1J
12
#5000000
0!
0I
0J
02
#5025000
1!
1I
1J
12
#5050000
0!
0I
0J
02
#5075000
1!
1I
1J
12
#5100000
0!
0I
0J
02
#5125000
1!
1I
1J
12
#5150000
0!
0I
0J
02
#5175000
1!
1I
1J
12
#5200000
0!
0I
0J
02
#5225000
1!
1I
1J
12
#5250000
0!
0I
0J
02
#5275000
1!
1I
1J
12
#5300000
0!
0I
0J
02
#5325000
1!
1I
1J
12
#5350000
0!
0I
0J
02
#5375000
1!
1I
1J
12
#5400000
0!
0I
0J
02
#5425000
1!
1I
1J
12
#5450000
0!
0I
0J
02
#5475000
1!
1I
1J
12
#5500000
0!
0I
0J
02
#5525000
1!
1I
1J
12
#5550000
0!
0I
0J
02
#5575000
1!
1I
1J
12
#5600000
0!
0I
0J
02
#5625000
1!
1I
1J
12
#5650000
0!
0I
0J
02
#5675000
1!
1I
1J
12
#5700000
0!
0I
0J
02
#5725000
1!
1I
1J
12
#5750000
0!
0I
0J
02
#5760000
b10000000000 #
b11000000000 #
b11100000000 #
b11110000000 #
b11111000000 #
b11111010000 #
1o
1g
1d
1a
1\
1X
12
1]
#5775000
1!
1I
1J
02
1p
1h
1e
1b
1^
1Y
1@!
1:!
19!
17!
13!
1_
12!
1Z
1\!
1Z!
1Y!
1X!
1W!
1V!
1G
1E
1D
1C
1B
1A
10
1.
1-
1,
1+
1*
#5800000
0!
0I
0J
12
#5825000
1!
1I
1J
02
1q
1i
1f
1c
1`
1[
1>!
1~
09!
0!!
07!
1"!
03!
14!
0#!
02!
10!
17!
13!
12!
1$!
00!
1[!
0Y!
0X!
0W!
0V!
1U!
1-!
1F
0D
0C
0B
0A
1@
1/
0-
0,
0+
0*
1)
1X!
1W!
1V!
0U!
1C
1B
1A
0@
1,
1+
1*
0)
1T!
1?
1(
#5850000
0!
0I
0J
12
#5875000
1!
1I
1J
02
1?!
1;!
18!
16!
15!
11!
0D!
0F!
0H!
1I!
0J!
0\!
0Z!
1Y!
0X!
0W!
0V!
1E!
1G!
0G
0E
1D
0C
0B
0A
00
0.
1-
0,
0+
0*
0[!
0Y!
1W!
1V!
1U!
0F
0D
1B
1A
1@
0/
0-
1+
1*
1)
1Z!
1X!
1E
1C
1.
1,
#5900000
0!
0I
0J
12
#5925000
1!
1I
1J
02
#5950000
0!
0I
0J
12
#5975000
1!
1I
1J
02
#6000000
0!
0I
0J
12
#6025000
1!
1I
1J
02
#6050000
0!
0I
0J
12
#6075000
1!
1I
1J
02
#6100000
0!
0I
0J
12
#6125000
1!
1I
1J
02
#6150000
0!
0I
0J
12
#6175000
1!
1I
1J
02
#6200000
0!
0I
0J
12
#6225000
1!
1I
1J
02
#6250000
0!
0I
0J
12
#6275000
1!
1I
1J
02
#6300000
0!
0I
0J
12
#6325000
1!
1I
1J
02
#6350000
0!
0I
0J
12
#6375000
1!
1I
1J
02
#6400000
0!
0I
0J
12
#6425000
1!
1I
1J
02
#6450000
0!
0I
0J
12
#6475000
1!
1I
1J
02
#6500000
0!
0I
0J
12
#6525000
1!
1I
1J
02
#6550000
0!
0I
0J
12
#6575000
1!
1I
1J
02
#6600000
0!
0I
0J
12
#6625000
1!
1I
1J
02
#6650000
0!
0I
0J
12
#6675000
1!
1I
1J
02
#6700000
0!
0I
0J
12
#6725000
1!
1I
1J
02
#6750000
0!
0I
0J
12
#6775000
1!
1I
1J
02
#6800000
0!
0I
0J
12
#6825000
1!
1I
1J
02
#6850000
0!
0I
0J
12
#6875000
1!
1I
1J
02
#6900000
0!
0I
0J
12
#6925000
1!
1I
1J
02
#6950000
0!
0I
0J
12
#6975000
1!
1I
1J
02
#7000000
0!
0I
0J
12
#7025000
1!
1I
1J
02
#7050000
0!
0I
0J
12
#7075000
1!
1I
1J
02
#7100000
0!
0I
0J
12
#7125000
1!
1I
1J
02
#7150000
0!
0I
0J
12
#7175000
1!
1I
1J
02
#7200000
0!
0I
0J
12
#7225000
1!
1I
1J
02
#7250000
0!
0I
0J
12
#7275000
1!
1I
1J
02
#7300000
0!
0I
0J
12
#7325000
1!
1I
1J
02
#7350000
0!
0I
0J
12
#7375000
1!
1I
1J
02
#7400000
0!
0I
0J
12
#7425000
1!
1I
1J
02
#7450000
0!
0I
0J
12
#7475000
1!
1I
1J
02
#7500000
0!
0I
0J
12
#7525000
1!
1I
1J
02
#7550000
0!
0I
0J
12
#7575000
1!
1I
1J
02
#7600000
0!
0I
0J
12
#7625000
1!
1I
1J
02
#7650000
0!
0I
0J
12
#7675000
1!
1I
1J
02
#7700000
0!
0I
0J
12
#7725000
1!
1I
1J
02
#7750000
0!
0I
0J
12
#7775000
1!
1I
1J
02
#7800000
0!
0I
0J
12
#7825000
1!
1I
1J
02
#7850000
0!
0I
0J
12
#7875000
1!
1I
1J
02
#7900000
0!
0I
0J
12
#7925000
1!
1I
1J
02
#7950000
0!
0I
0J
12
#7975000
1!
1I
1J
02
#8000000
0!
0I
0J
12
#8025000
1!
1I
1J
02
#8050000
0!
0I
0J
12
#8075000
1!
1I
1J
02
#8100000
0!
0I
0J
12
#8125000
1!
1I
1J
02
#8150000
0!
0I
0J
12
#8175000
1!
1I
1J
02
#8200000
0!
0I
0J
12
#8225000
1!
1I
1J
02
#8250000
0!
0I
0J
12
#8275000
1!
1I
1J
02
#8300000
0!
0I
0J
12
#8325000
1!
1I
1J
02
#8350000
0!
0I
0J
12
#8375000
1!
1I
1J
02
#8400000
0!
0I
0J
12
#8425000
1!
1I
1J
02
#8450000
0!
0I
0J
12
#8475000
1!
1I
1J
02
#8500000
0!
0I
0J
12
#8525000
1!
1I
1J
02
#8550000
0!
0I
0J
12
#8575000
1!
1I
1J
02
#8600000
0!
0I
0J
12
#8625000
1!
1I
1J
02
#8650000
0!
0I
0J
12
#8675000
1!
1I
1J
02
#8700000
0!
0I
0J
12
#8725000
1!
1I
1J
02
#8750000
0!
0I
0J
12
#8775000
1!
1I
1J
02
#8800000
0!
0I
0J
12
#8825000
1!
1I
1J
02
#8850000
0!
0I
0J
12
#8875000
1!
1I
1J
02
#8900000
0!
0I
0J
12
#8925000
1!
1I
1J
02
#8950000
0!
0I
0J
12
#8975000
1!
1I
1J
02
#9000000
0!
0I
0J
12
#9025000
1!
1I
1J
02
#9050000
0!
0I
0J
12
#9075000
1!
1I
1J
02
#9100000
0!
0I
0J
12
#9125000
1!
1I
1J
02
#9150000
0!
0I
0J
12
#9175000
1!
1I
1J
02
#9200000
0!
0I
0J
12
#9225000
1!
1I
1J
02
#9250000
0!
0I
0J
12
#9275000
1!
1I
1J
02
#9300000
0!
0I
0J
12
#9325000
1!
1I
1J
02
#9350000
0!
0I
0J
12
#9375000
1!
1I
1J
02
#9400000
0!
0I
0J
12
#9425000
1!
1I
1J
02
#9450000
0!
0I
0J
12
#9475000
1!
1I
1J
02
#9500000
0!
0I
0J
12
#9525000
1!
1I
1J
02
#9550000
0!
0I
0J
12
#9575000
1!
1I
1J
02
#9600000
0!
0I
0J
12
#9625000
1!
1I
1J
02
#9650000
0!
0I
0J
12
#9675000
1!
1I
1J
02
#9700000
0!
0I
0J
12
#9725000
1!
1I
1J
02
#9750000
0!
0I
0J
12
#9775000
1!
1I
1J
02
#9800000
0!
0I
0J
12
#9825000
1!
1I
1J
02
#9850000
0!
0I
0J
12
#9875000
1!
1I
1J
02
#9900000
0!
0I
0J
12
#9925000
1!
1I
1J
02
#9950000
0!
0I
0J
12
#9975000
1!
1I
1J
02
#10000000
0!
0I
0J
12
#10025000
1!
1I
1J
02
#10050000
0!
0I
0J
12
#10075000
1!
1I
1J
02
#10100000
0!
0I
0J
12
#10125000
1!
1I
1J
02
#10150000
0!
0I
0J
12
#10175000
1!
1I
1J
02
#10200000
0!
0I
0J
12
#10225000
1!
1I
1J
02
#10250000
0!
0I
0J
12
#10275000
1!
1I
1J
02
#10300000
0!
0I
0J
12
#10325000
1!
1I
1J
02
#10350000
0!
0I
0J
12
#10375000
1!
1I
1J
02
#10400000
0!
0I
0J
12
#10425000
1!
1I
1J
02
#10450000
0!
0I
0J
12
#10475000
1!
1I
1J
02
#10500000
0!
0I
0J
12
#10525000
1!
1I
1J
02
#10550000
0!
0I
0J
12
#10575000
1!
1I
1J
02
#10600000
0!
0I
0J
12
#10625000
1!
1I
1J
02
#10650000
0!
0I
0J
12
#10675000
1!
1I
1J
02
#10700000
0!
0I
0J
12
#10725000
1!
1I
1J
02
#10750000
0!
0I
0J
12
#10775000
1!
1I
1J
02
#10800000
0!
0I
0J
12
#10825000
1!
1I
1J
02
#10850000
0!
0I
0J
12
#10875000
1!
1I
1J
02
#10900000
0!
0I
0J
12
#10925000
1!
1I
1J
02
#10950000
0!
0I
0J
12
#10975000
1!
1I
1J
02
#11000000
0!
0I
0J
12
#11025000
1!
1I
1J
02
#11050000
0!
0I
0J
12
#11075000
1!
1I
1J
02
#11100000
0!
0I
0J
12
#11125000
1!
1I
1J
02
#11150000
0!
0I
0J
12
#11175000
1!
1I
1J
02
#11200000
0!
0I
0J
12
#11225000
1!
1I
1J
02
#11250000
0!
0I
0J
12
#11275000
1!
1I
1J
02
#11300000
0!
0I
0J
12
#11325000
1!
1I
1J
02
#11350000
0!
0I
0J
12
#11375000
1!
1I
1J
02
#11400000
0!
0I
0J
12
#11425000
1!
1I
1J
02
#11450000
0!
0I
0J
12
#11475000
1!
1I
1J
02
#11500000
0!
0I
0J
12
#11525000
1!
1I
1J
02
#11550000
0!
0I
0J
12
#11575000
1!
1I
1J
02
#11600000
0!
0I
0J
12
#11625000
1!
1I
1J
02
#11650000
0!
0I
0J
12
#11675000
1!
1I
1J
02
#11700000
0!
0I
0J
12
#11725000
1!
1I
1J
02
#11750000
0!
0I
0J
12
#11775000
1!
1I
1J
02
#11800000
0!
0I
0J
12
#11825000
1!
1I
1J
02
#11850000
0!
0I
0J
12
#11875000
1!
1I
1J
02
#11900000
0!
0I
0J
12
#11925000
1!
1I
1J
02
#11950000
0!
0I
0J
12
#11975000
1!
1I
1J
02
#12000000
0!
0I
0J
12
#12025000
1!
1I
1J
02
#12050000
0!
0I
0J
12
#12075000
1!
1I
1J
02
#12100000
0!
0I
0J
12
#12125000
1!
1I
1J
02
#12150000
0!
0I
0J
12
#12175000
1!
1I
1J
02
#12200000
0!
0I
0J
12
#12225000
1!
1I
1J
02
#12250000
0!
0I
0J
12
#12275000
1!
1I
1J
02
#12300000
0!
0I
0J
12
#12325000
1!
1I
1J
02
#12350000
0!
0I
0J
12
#12375000
1!
1I
1J
02
#12400000
0!
0I
0J
12
#12425000
1!
1I
1J
02
#12450000
0!
0I
0J
12
#12475000
1!
1I
1J
02
#12500000
0!
0I
0J
12
#12525000
1!
1I
1J
02
#12550000
0!
0I
0J
12
#12575000
1!
1I
1J
02
#12600000
0!
0I
0J
12
#12625000
1!
1I
1J
02
#12650000
0!
0I
0J
12
#12675000
1!
1I
1J
02
#12700000
0!
0I
0J
12
#12725000
1!
1I
1J
02
#12750000
0!
0I
0J
12
#12775000
1!
1I
1J
02
#12800000
0!
0I
0J
12
#12825000
1!
1I
1J
02
#12850000
0!
0I
0J
12
#12875000
1!
1I
1J
02
#12900000
0!
0I
0J
12
#12925000
1!
1I
1J
02
#12950000
0!
0I
0J
12
#12975000
1!
1I
1J
02
#13000000
0!
0I
0J
12
#13025000
1!
1I
1J
02
#13050000
0!
0I
0J
12
#13075000
1!
1I
1J
02
#13100000
0!
0I
0J
12
#13125000
1!
1I
1J
02
#13150000
0!
0I
0J
12
#13175000
1!
1I
1J
02
#13200000
0!
0I
0J
12
#13225000
1!
1I
1J
02
#13250000
0!
0I
0J
12
#13275000
1!
1I
1J
02
#13300000
0!
0I
0J
12
#13325000
1!
1I
1J
02
#13350000
0!
0I
0J
12
#13375000
1!
1I
1J
02
#13400000
0!
0I
0J
12
#13425000
1!
1I
1J
02
#13450000
0!
0I
0J
12
#13475000
1!
1I
1J
02
#13500000
0!
0I
0J
12
#13525000
1!
1I
1J
02
#13550000
0!
0I
0J
12
#13575000
1!
1I
1J
02
#13600000
0!
0I
0J
12
#13625000
1!
1I
1J
02
#13650000
0!
0I
0J
12
#13675000
1!
1I
1J
02
#13700000
0!
0I
0J
12
#13725000
1!
1I
1J
02
#13750000
0!
0I
0J
12
#13775000
1!
1I
1J
02
#13800000
0!
0I
0J
12
#13825000
1!
1I
1J
02
#13850000
0!
0I
0J
12
#13875000
1!
1I
1J
02
#13900000
0!
0I
0J
12
#13925000
1!
1I
1J
02
#13950000
0!
0I
0J
12
#13975000
1!
1I
1J
02
#14000000
0!
0I
0J
12
#14025000
1!
1I
1J
02
#14050000
0!
0I
0J
12
#14075000
1!
1I
1J
02
#14100000
0!
0I
0J
12
#14125000
1!
1I
1J
02
#14150000
0!
0I
0J
12
#14175000
1!
1I
1J
02
#14200000
0!
0I
0J
12
#14225000
1!
1I
1J
02
#14250000
0!
0I
0J
12
#14275000
1!
1I
1J
02
#14300000
0!
0I
0J
12
#14325000
1!
1I
1J
02
#14350000
0!
0I
0J
12
#14375000
1!
1I
1J
02
#14400000
0!
0I
0J
12
#14425000
1!
1I
1J
02
#14450000
0!
0I
0J
12
#14475000
1!
1I
1J
02
#14500000
0!
0I
0J
12
#14525000
1!
1I
1J
02
#14550000
0!
0I
0J
12
#14575000
1!
1I
1J
02
#14600000
0!
0I
0J
12
#14625000
1!
1I
1J
02
#14650000
0!
0I
0J
12
#14675000
1!
1I
1J
02
#14700000
0!
0I
0J
12
