fir_filters/band_pass_direct_vhdl/simulation/qsim/band_pass_direct_vhdl.msim.vcd
$comment
	File created using the following command:
		vcd file band_pass_direct_vhdl.msim.vcd -direction
$end
$date
	Wed Jul 09 14:33:51 2025
$end
$version
	ModelSim Version 10.1d
$end
$timescale
	1ps
$end
$scope module band_pass_direct_vhdl_vlg_vec_tst $end
$var reg 1 ! clk $end
$var reg 1 " rst $end
$var reg 14 # sig_in [13:0] $end
$var wire 1 $ sig_out [13] $end
$var wire 1 % sig_out [12] $end
$var wire 1 & sig_out [11] $end
$var wire 1 ' sig_out [10] $end
$var wire 1 ( sig_out [9] $end
$var wire 1 ) sig_out [8] $end
$var wire 1 * sig_out [7] $end
$var wire 1 + sig_out [6] $end
$var wire 1 , sig_out [5] $end
$var wire 1 - sig_out [4] $end
$var wire 1 . sig_out [3] $end
$var wire 1 / sig_out [2] $end
$var wire 1 0 sig_out [1] $end
$var wire 1 1 sig_out [0] $end
$var wire 1 2 sampler $end
$scope module i1 $end
$var wire 1 3 gnd $end
$var wire 1 4 vcc $end
$var wire 1 5 unknown $end
$var tri1 1 6 devclrn $end
$var tri1 1 7 devpor $end
$var tri1 1 8 devoe $end
$var wire 1 9 sig_out[0]~output_o $end
$var wire 1 : sig_out[1]~output_o $end
$var wire 1 ; sig_out[2]~output_o $end
$var wire 1 < sig_out[3]~output_o $end
$var wire 1 = sig_out[4]~output_o $end
$var wire 1 > sig_out[5]~output_o $end
$var wire 1 ? sig_out[6]~output_o $end
$var wire 1 @ sig_out[7]~output_o $end
$var wire 1 A sig_out[8]~output_o $end
$var wire 1 B sig_out[9]~output_o $end
$var wire 1 C sig_out[10]~output_o $end
$var wire 1 D sig_out[11]~output_o $end
$var wire 1 E sig_out[12]~output_o $end
$var wire 1 F sig_out[13]~output_o $end
$var wire 1 G clk~input_o $end
$var wire 1 H clk~inputclkctrl_outclk $end
$var wire 1 I sig_in[1]~input_o $end
$var wire 1 J rst~input_o $end
$var wire 1 K rst~inputclkctrl_outclk $end
$var wire 1 L taps[0][1]~q $end
$var wire 1 M sig_in[0]~input_o $end
$var wire 1 N taps[0][0]~q $end
$var wire 1 O sig_in[13]~input_o $end
$var wire 1 P taps[0][13]~q $end
$var wire 1 Q Add1~1_cout $end
$var wire 1 R Add1~2_combout $end
$var wire 1 S taps[1][1]~feeder_combout $end
$var wire 1 T taps[1][1]~q $end
$var wire 1 U taps[2][1]~q $end
$var wire 1 V taps[1][13]~feeder_combout $end
$var wire 1 W taps[1][13]~q $end
$var wire 1 X taps[2][13]~feeder_combout $end
$var wire 1 Y taps[2][13]~q $end
$var wire 1 Z taps[1][0]~feeder_combout $end
$var wire 1 [ taps[1][0]~q $end
$var wire 1 \ taps[2][0]~q $end
$var wire 1 ] Add0~1_cout $end
$var wire 1 ^ Add0~2_combout $end
$var wire 1 _ sig_out[0]~14_combout $end
$var wire 1 ` sig_out[0]~reg0_q $end
$var wire 1 a sig_in[2]~input_o $end
$var wire 1 b taps[0][2]~feeder_combout $end
$var wire 1 c taps[0][2]~q $end
$var wire 1 d Add1~3 $end
$var wire 1 e Add1~4_combout $end
$var wire 1 f taps[1][2]~feeder_combout $end
$var wire 1 g taps[1][2]~q $end
$var wire 1 h taps[2][2]~q $end
$var wire 1 i Add0~3 $end
$var wire 1 j Add0~4_combout $end
$var wire 1 k sig_out[0]~15 $end
$var wire 1 l sig_out[1]~16_combout $end
$var wire 1 m sig_out[1]~reg0_q $end
$var wire 1 n sig_in[3]~input_o $end
$var wire 1 o taps[0][3]~q $end
$var wire 1 p Add1~5 $end
$var wire 1 q Add1~6_combout $end
$var wire 1 r taps[1][3]~feeder_combout $end
$var wire 1 s taps[1][3]~q $end
$var wire 1 t taps[2][3]~q $end
$var wire 1 u Add0~5 $end
$var wire 1 v Add0~6_combout $end
$var wire 1 w sig_out[1]~17 $end
$var wire 1 x sig_out[2]~18_combout $end
$var wire 1 y sig_out[2]~reg0_q $end
$var wire 1 z sig_in[4]~input_o $end
$var wire 1 { taps[0][4]~q $end
$var wire 1 | taps[1][4]~feeder_combout $end
$var wire 1 } taps[1][4]~q $end
$var wire 1 ~ taps[2][4]~q $end
$var wire 1 !! Add0~7 $end
$var wire 1 "! Add0~8_combout $end
$var wire 1 #! Add1~7 $end
$var wire 1 $! Add1~8_combout $end
$var wire 1 %! sig_out[2]~19 $end
$var wire 1 &! sig_out[3]~20_combout $end
$var wire 1 '! sig_out[3]~reg0_q $end
$var wire 1 (! sig_in[5]~input_o $end
$var wire 1 )! taps[0][5]~q $end
$var wire 1 *! taps[1][5]~q $end
$var wire 1 +! taps[2][5]~q $end
$var wire 1 ,! Add0~9 $end
$var wire 1 -! Add0~10_combout $end
$var wire 1 .! Add1~9 $end
$var wire 1 /! Add1~10_combout $end
$var wire 1 0! sig_out[3]~21 $end
$var wire 1 1! sig_out[4]~22_combout $end
$var wire 1 2! sig_out[4]~reg0_q $end
$var wire 1 3! sig_in[6]~input_o $end
$var wire 1 4! taps[0][6]~q $end
$var wire 1 5! taps[1][6]~feeder_combout $end
$var wire 1 6! taps[1][6]~q $end
$var wire 1 7! taps[2][6]~q $end
$var wire 1 8! Add0~11 $end
$var wire 1 9! Add0~12_combout $end
$var wire 1 :! Add1~11 $end
$var wire 1 ;! Add1~12_combout $end
$var wire 1 <! sig_out[4]~23 $end
$var wire 1 =! sig_out[5]~24_combout $end
$var wire 1 >! sig_out[5]~reg0_q $end
$var wire 1 ?! sig_in[7]~input_o $end
$var wire 1 @! taps[0][7]~q $end
$var wire 1 A! taps[1][7]~feeder_combout $end
$var wire 1 B! taps[1][7]~q $end
$var wire 1 C! taps[2][7]~q $end
$var wire 1 D! Add0~13 $end
$var wire 1 E! Add0~14_combout $end
$var wire 1 F! Add1~13 $end
$var wire 1 G! Add1~14_combout $end
$var wire 1 H! sig_out[5]~25 $end
$var wire 1 I! sig_out[6]~26_combout $end
$var wire 1 J! sig_out[6]~reg0_q $end
$var wire 1 K! sig_in[8]~input_o $end
$var wire 1 L! taps[0][8]~q $end
$var wire 1 M! taps[1][8]~feeder_combout $end
$var wire 1 N! taps[1][8]~q $end
$var wire 1 O! taps[2][8]~q $end
$var wire 1 P! Add0~15 $end
$var wire 1 Q! Add0~16_combout $end
$var wire 1 R! Add1~15 $end
$var wire 1 S! Add1~16_combout $end
$var wire 1 T! sig_out[6]~27 $end
$var wire 1 U! sig_out[7]~28_combout $end
$var wire 1 V! sig_out[7]~reg0_q $end
$var wire 1 W! sig_in[9]~input_o $end
$var wire 1 X! taps[0][9]~q $end
$var wire 1 Y! taps[1][9]~q $end
$var wire 1 Z! taps[2][9]~q $end
$var wire 1 [! Add0~17 $end
$var wire 1 \! Add0~18_combout $end
$var wire 1 ]! Add1~17 $end
$var wire 1 ^! Add1~18_combout $end
$var wire 1 _! sig_out[7]~29 $end
$var wire 1 `! sig_out[8]~30_combout $end
$var wire 1 a! sig_out[8]~reg0_q $end
$var wire 1 b! sig_in[10]~input_o $end
$var wire 1 c! taps[0][10]~q $end
$var wire 1 d! Add1~19 $end
$var wire 1 e! Add1~20_combout $end
$var wire 1 f! taps[1][10]~q $end
$var wire 1 g! taps[2][10]~q $end
$var wire 1 h! Add0~19 $end
$var wire 1 i! Add0~20_combout $end
$var wire 1 j! sig_out[8]~31 $end
$var wire 1 k! sig_out[9]~32_combout $end
$var wire 1 l! sig_out[9]~reg0_q $end
$var wire 1 m! sig_in[11]~input_o $end
$var wire 1 n! taps[0][11]~q $end
$var wire 1 o! taps[1][11]~q $end
$var wire 1 p! taps[2][11]~q $end
$var wire 1 q! Add0~21 $end
$var wire 1 r! Add0~22_combout $end
$var wire 1 s! Add1~21 $end
$var wire 1 t! Add1~22_combout $end
$var wire 1 u! sig_out[9]~33 $end
$var wire 1 v! sig_out[10]~34_combout $end
$var wire 1 w! sig_out[10]~reg0_q $end
$var wire 1 x! sig_in[12]~input_o $end
$var wire 1 y! taps[0][12]~q $end
$var wire 1 z! Add1~23 $end
$var wire 1 {! Add1~24_combout $end
$var wire 1 |! taps[1][12]~feeder_combout $end
$var wire 1 }! taps[1][12]~q $end
$var wire 1 ~! taps[2][12]~q $end
$var wire 1 !" Add0~23 $end
$var wire 1 "" Add0~24_combout $end
$var wire 1 #" sig_out[10]~35 $end
$var wire 1 $" sig_out[11]~36_combout $end
$var wire 1 %" sig_out[11]~reg0_q $end
$var wire 1 &" Add0~25 $end
$var wire 1 '" Add0~26_combout $end
$var wire 1 (" Add1~25 $end
$var wire 1 )" Add1~26_combout $end
$var wire 1 *" sig_out[11]~37 $end
$var wire 1 +" sig_out[12]~38_combout $end
$var wire 1 ," sig_out[12]~reg0_q $end
$var wire 1 -" Add0~27 $end
$var wire 1 ." Add0~28_combout $end
$var wire 1 /" Add1~27 $end
$var wire 1 0" Add1~28_combout $end
$var wire 1 1" sig_out[12]~39 $end
$var wire 1 2" sig_out[13]~40_combout $end
$var wire 1 3" sig_out[13]~reg0_q $end
$upscope $end
$upscope $end
$enddefinitions $end
#0
$dumpvars
0!
0"
b0 #
0r
0s
0t
0u
0v
0w
0x
0y
0z
0{
0|
0}
0~
1!!
0"!
1#!
0$!
1%!
0&!
0'!
0(!
0)!
0*!
0+!
0,!
0-!
0.!
0/!
00!
01!
02!
03!
04!
05!
06!
07!
18!
09!
1:!
0;!
1<!
0=!
0>!
0?!
0@!
0A!
0B!
0C!
0D!
0E!
0F!
0G!
0H!
0I!
0J!
0K!
0L!
0M!
0N!
0O!
01
00
0/
0.
0-
0,
0+
0*
0)
0(
0'
0&
0%
0$
x2
03
14
x5
16
17
18
09
0:
0;
0<
0=
0>
0?
0@
0A
0B
0C
0D
0E
0F
0G
0H
0I
0J
0K
0L
0M
0N
0O
0P
0Q
0R
0S
0T
0U
0V
0W
0X
0Y
0Z
0[
0\
0]
0^
0_
0`
0a
0b
0c
1d
0e
0f
0g
0h
1i
0j
1k
0l
0m
0n
0o
0p
0q
1P!
0Q!
1R!
0S!
1T!
0U!
0V!
0W!
0X!
0Y!
0Z!
0[!
0\!
0]!
0^!
0_!
0`!
0a!
0b!
0c!
1d!
0e!
0f!
0g!
1h!
0i!
1j!
0k!
0l!
0m!
0n!
0o!
0p!
0q!
0r!
0s!
0t!
0u!
0v!
0w!
0x!
0y!
1z!
0{!
0|!
0}!
0~!
1!"
0""
1#"
0$"
0%"
0&"
0'"
0("
0)"
0*"
0+"
0,"
1-"
0."
1/"
00"
11"
02"
03"
$end
#20000
1"
1J
1K
02
#25000
1!
1G
1H
12
#50000
0!
0G
0H
02
#75000
1!
1G
1H
12
#100000
0"
0!
0J
0G
0K
0H
02
#125000
1!
1G
1H
12
#150000
0!
0G
0H
02
#175000
1!
1G
1H
12
#200000
0!
0G
0H
02
#210000
b10000000000 #
b11000000000 #
b11100000000 #
b11110000000 #
b11111000000 #
b11111010000 #
1z
13!
1?!
1K!
1W!
1b!
12
#225000
1!
1G
1H
02
1c!
1X!
1L!
1@!
14!
1{
1e!
1^!
1S!
1M!
1G!
1A!
1;!
15!
1$!
1|
1u!
1k!
0j!
1`!
1_!
1U!
0T!
1I!
1H!
1=!
10!
1&!
0#"
1v!
0k!
0`!
0U!
0I!
0<!
11!
1*"
1$"
0=!
01"
1+"
12"
#250000
0!
0G
0H
12
#270000
b1111010000 #
b111010000 #
b11010000 #
b1010000 #
b10000 #
b0 #
0z
03!
0?!
0K!
0W!
0b!
02
#275000
1!
1G
1H
12
1f!
0c!
1Y!
0X!
1N!
0L!
1B!
0@!
16!
04!
1}
0{
13"
1,"
1%"
1w!
12!
1'!
0e!
0^!
0S!
0M!
0G!
0A!
0;!
05!
0$!
0|
1F
1E
1D
1C
1=
1<
1$
1%
1&
1'
1-
1.
1k!
1`!
1U!
1I!
1=!
00!
0&!
1<!
01!
0H!
0=!
1T!
0I!
0_!
0U!
1j!
0`!
0u!
0k!
1#"
0v!
0*"
0$"
11"
0+"
02"
#300000
0!
0G
0H
02
#325000
1!
1G
1H
12
1g!
0f!
1Z!
0Y!
1O!
0N!
1C!
0B!
17!
06!
1~
0}
03"
0,"
0%"
0w!
02!
0'!
1i!
1\!
1Q!
1E!
19!
1"!
0F
0E
0D
0C
0=
0<
0$
0%
0&
0'
0-
0.
1k!
1`!
1U!
1I!
1=!
1&!
#350000
0!
0G
0H
02
#375000
1!
1G
1H
12
0g!
0Z!
0O!
0C!
07!
0~
1l!
1a!
1V!
1J!
1>!
1'!
0i!
0\!
0Q!
0E!
09!
0"!
1B
1A
1@
1?
1>
1<
1(
1)
1*
1+
1,
1.
0k!
0`!
0U!
0I!
0=!
0&!
#400000
0!
0G
0H
02
#425000
1!
1G
1H
12
0l!
0a!
0V!
0J!
0>!
0'!
0B
0A
0@
0?
0>
0<
0(
0)
0*
0+
0,
0.
#450000
0!
0G
0H
02
#475000
1!
1G
1H
12
#500000
0!
0G
0H
02
#525000
1!
1G
1H
12
#550000
0!
0G
0H
02
#575000
1!
1G
1H
12
#600000
0!
0G
0H
02
#625000
1!
1G
1H
12
#650000
0!
0G
0H
02
#675000
1!
1G
1H
12
#700000
0!
0G
0H
02
#725000
1!
1G
1H
12
#750000
0!
0G
0H
02
#775000
1!
1G
1H
12
#800000
0!
0G
0H
02
#825000
1!
1G
1H
12
#850000
0!
0G
0H
02
#875000
1!
1G
1H
12
#900000
0!
0G
0H
02
#925000
1!
1G
1H
12
#950000
0!
0G
0H
02
#975000
1!
1G
1H
12
#1000000
0!
0G
0H
02
#1025000
1!
1G
1H
12
#1050000
0!
0G
0H
02
#1075000
1!
1G
1H
12
#1100000
0!
0G
0H
02
#1125000
1!
1G
1H
12
#1150000
0!
0G
0H
02
#1175000
1!
1G
1H
12
#1200000
0!
0G
0H
02
#1225000
1!
1G
1H
12
#1250000
0!
0G
0H
02
#1275000
1!
1G
1H
12
#1300000
0!
0G
0H
02
#1325000
1!
1G
1H
12
#1350000
0!
0G
0H
02
#1375000
1!
1G
1H
12
#1400000
0!
0G
0H
02
#1425000
1!
1G
1H
12
#1450000
0!
0G
0H
02
#1475000
1!
1G
1H
12
#1500000
0!
0G
0H
02
#1525000
1!
1G
1H
12
#1550000
0!
0G
0H
02
#1575000
1!
1G
1H
12
#1600000
0!
0G
0H
02
#1625000
1!
1G
1H
12
#1650000
0!
0G
0H
02
#1675000
1!
1G
1H
12
#1700000
0!
0G
0H
02
#1725000
1!
1G
1H
12
#1750000
0!
0G
0H
02
#1775000
1!
1G
1H
12
#1800000
0!
0G
0H
02
#1825000
1!
1G
1H
12
#1850000
0!
0G
0H
02
#1875000
1!
1G
1H
12
#1900000
0!
0G
0H
02
#1925000
1!
1G
1H
12
#1950000
0!
0G
0H
02
#1975000
1!
1G
1H
12
#2000000
0!
0G
0H
02
#2025000
1!
1G
1H
12
#2050000
0!
0G
0H
02
#2075000
1!
1G
1H
12
#2100000
0!
0G
0H
02
#2125000
1!
1G
1H
12
#2150000
0!
0G
0H
02
#2175000
1!
1G
1H
12
#2200000
0!
0G
0H
02
#2225000
1!
1G
1H
12
#2250000
0!
0G
0H
02
#2275000
1!
1G
1H
12
#2300000
0!
0G
0H
02
#2325000
1!
1G
1H
12
#2350000
0!
0G
0H
02
#2375000
1!
1G
1H
12
#2400000
0!
0G
0H
02
#2425000
1!
1G
1H
12
#2450000
0!
0G
0H
02
#2475000
1!
1G
1H
12
#2500000
0!
0G
0H
02
#2525000
1!
1G
1H
12
#2550000
0!
0G
0H
02
#2575000
1!
1G
1H
12
#2600000
0!
0G
0H
02
#2625000
1!
1G
1H
12
#2650000
0!
0G
0H
02
#2675000
1!
1G
1H
12
#2700000
0!
0G
0H
02
#2725000
1!
1G
1H
12
#2750000
0!
0G
0H
02
#2775000
1!
1G
1H
12
#2800000
0!
0G
0H
02
#2825000
1!
1G
1H
12
#2850000
0!
0G
0H
02
#2875000
1!
1G
1H
12
#2900000
0!
0G
0H
02
#2925000
1!
1G
1H
12
#2950000
0!
0G
0H
02
#2975000
1!
1G
1H
12
#3000000
0!
0G
0H
02
#3025000
1!
1G
1H
12
#3050000
0!
0G
0H
02
#3075000
1!
1G
1H
12
#3100000
0!
0G
0H
02
#3125000
1!
1G
1H
12
#3150000
0!
0G
0H
02
#3175000
1!
1G
1H
12
#3200000
0!
0G
0H
02
#3225000
1!
1G
1H
12
#3250000
0!
0G
0H
02
#3275000
1!
1G
1H
12
#3300000
0!
0G
0H
02
#3325000
1!
1G
1H
12
#3350000
0!
0G
0H
02
#3375000
1!
1G
1H
12
#3400000
0!
0G
0H
02
#3425000
1!
1G
1H
12
#3450000
0!
0G
0H
02
#3475000
1!
1G
1H
12
#3500000
0!
0G
0H
02
#3525000
1!
1G
1H
12
#3550000
0!
0G
0H
02
#3575000
1!
1G
1H
12
#3600000
0!
0G
0H
02
#3625000
1!
1G
1H
12
#3650000
0!
0G
0H
02
#3675000
1!
1G
1H
12
#3700000
0!
0G
0H
02
#3725000
1!
1G
1H
12
#3750000
0!
0G
0H
02
#3775000
1!
1G
1H
12
#3800000
0!
0G
0H
02
#3825000
1!
1G
1H
12
#3850000
0!
0G
0H
02
#3875000
1!
1G
1H
12
#3900000
0!
0G
0H
02
#3925000
1!
1G
1H
12
#3950000
0!
0G
0H
02
#3975000
1!
1G
1H
12
#4000000
0!
0G
0H
02
#4025000
1!
1G
1H
12
#4050000
0!
0G
0H
02
#4075000
1!
1G
1H
12
#4100000
0!
0G
0H
02
#4125000
1!
1G
1H
12
#4150000
0!
0G
0H
02
#4175000
1!
1G
1H
12
#4200000
0!
0G
0H
02
#4225000
1!
1G
1H
12
#4250000
0!
0G
0H
02
#4275000
1!
1G
1H
12
#4300000
0!
0G
0H
02
#4325000
1!
1G
1H
12
#4350000
0!
0G
0H
02
#4375000
1!
1G
1H
12
#4400000
0!
0G
0H
02
#4425000
1!
1G
1H
12
#4450000
0!
0G
0H
02
#4475000
1!
1G
1H
12
#4500000
0!
0G
0H
02
#4525000
1!
1G
1H
12
#4550000
0!
0G
0H
02
#4575000
1!
1G
1H
12
#4600000
0!
0G
0H
02
#4625000
1!
1G
1H
12
#4650000
0!
0G
0H
02
#4675000
1!
1G
1H
12
#4700000
0!
0G
0H
02
#4725000
1!
1G
1H
12
#4750000
0!
0G
0H
02
#4775000
1!
1G
1H
12
#4800000
0!
0G
0H
02
#4825000
1!
1G
1H
12
#4850000
0!
0G
0H
02
#4875000
1!
1G
1H
12
#4900000
0!
0G
0H
02
#4925000
1!
1G
1H
12
#4950000
0!
0G
0H
02
#4975000
1!
1G
1H
12
#5000000
0!
0G
0H
02
#5025000
1!
1G
1H
12
#5050000
0!
0G
0H
02
#5075000
1!
1G
1H
12
#5100000
0!
0G
0H
02
#5125000
1!
1G
1H
12
#5150000
0!
0G
0H
02
#5175000
1!
1G
1H
12
#5200000
0!
0G
0H
02
#5225000
1!
1G
1H
12
#5250000
0!
0G
0H
02
#5275000
1!
1G
1H
12
#5300000
0!
0G
0H
02
#5325000
1!
1G
1H
12
#5350000
0!
0G
0H
02
#5375000
1!
1G
1H
12
#5400000
0!
0G
0H
02
#5425000
1!
1G
1H
12
#5450000
0!
0G
0H
02
#5475000
1!
1G
1H
12
#5500000
0!
0G
0H
02
#5525000
1!
1G
1H
12
#5550000
0!
0G
0H
02
#5575000
1!
1G
1H
12
#5600000
0!
0G
0H
02
#5625000
1!
1G
1H
12
#5650000
0!
0G
0H
02
#5675000
1!
1G
1H
12
#5700000
0!
0G
0H
02
#5725000
1!
1G
1H
12
#5750000
0!
0G
0H
02
#5760000
b10000000000 #
b11000000000 #
b11100000000 #
b11110000000 #
b11111000000 #
b11111010000 #
1z
13!
1?!
1K!
1W!
1b!
12
#5775000
1!
1G
1H
02
1c!
1X!
1L!
1@!
14!
1{
1e!
1^!
1S!
1M!
1G!
1A!
1;!
15!
1$!
1|
1u!
1k!
0j!
1`!
1_!
1U!
0T!
1I!
1H!
1=!
10!
1&!
0#"
1v!
0k!
0`!
0U!
0I!
0<!
11!
1*"
1$"
0=!
01"
1+"
12"
#5800000
0!
0G
0H
12
#5825000
1!
1G
1H
02
1f!
1Y!
1N!
1B!
16!
1}
13"
1,"
1%"
1w!
12!
1'!
1F
1E
1D
1C
1=
1<
1$
1%
1&
1'
1-
1.
#5850000
0!
0G
0H
12
#5875000
1!
1G
1H
02
1g!
1Z!
1O!
1C!
17!
1~
1i!
1\!
1Q!
1E!
19!
1"!
1k!
1`!
1U!
1I!
1=!
00!
0&!
1<!
01!
0H!
0=!
1T!
0I!
0_!
0U!
1j!
0`!
0u!
0k!
1#"
0v!
0*"
0$"
11"
0+"
02"
#5900000
0!
0G
0H
12
#5925000
1!
1G
1H
02
03"
0,"
0%"
0w!
02!
0'!
0F
0E
0D
0C
0=
0<
0$
0%
0&
0'
0-
0.
#5950000
0!
0G
0H
12
#5975000
1!
1G
1H
02
#6000000
0!
0G
0H
12
#6025000
1!
1G
1H
02
#6050000
0!
0G
0H
12
#6075000
1!
1G
1H
02
#6100000
0!
0G
0H
12
#6125000
1!
1G
1H
02
#6150000
0!
0G
0H
12
#6175000
1!
1G
1H
02
#6200000
0!
0G
0H
12
#6225000
1!
1G
1H
02
#6250000
0!
0G
0H
12
#6275000
1!
1G
1H
02
#6300000
0!
0G
0H
12
#6325000
1!
1G
1H
02
#6350000
0!
0G
0H
12
#6375000
1!
1G
1H
02
#6400000
0!
0G
0H
12
#6425000
1!
1G
1H
02
#6450000
0!
0G
0H
12
#6475000
1!
1G
1H
02
#6500000
0!
0G
0H
12
#6525000
1!
1G
1H
02
#6550000
0!
0G
0H
12
#6575000
1!
1G
1H
02
#6600000
0!
0G
0H
12
#6625000
1!
1G
1H
02
#6650000
0!
0G
0H
12
#6675000
1!
1G
1H
02
#6700000
0!
0G
0H
12
#6725000
1!
1G
1H
02
#6750000
0!
0G
0H
12
#6775000
1!
1G
1H
02
#6800000
0!
0G
0H
12
#6825000
1!
1G
1H
02
#6850000
0!
0G
0H
12
#6875000
1!
1G
1H
02
#6900000
0!
0G
0H
12
#6925000
1!
1G
1H
02
#6950000
0!
0G
0H
12
#6975000
1!
1G
1H
02
#7000000
0!
0G
0H
12
#7025000
1!
1G
1H
02
#7050000
0!
0G
0H
12
#7075000
1!
1G
1H
02
#7100000
0!
0G
0H
12
#7125000
1!
1G
1H
02
#7150000
0!
0G
0H
12
#7175000
1!
1G
1H
02
#7200000
0!
0G
0H
12
#7225000
1!
1G
1H
02
#7250000
0!
0G
0H
12
#7275000
1!
1G
1H
02
#7300000
0!
0G
0H
12
#7325000
1!
1G
1H
02
#7350000
0!
0G
0H
12
#7375000
1!
1G
1H
02
#7400000
0!
0G
0H
12
#7425000
1!
1G
1H
02
#7450000
0!
0G
0H
12
#7475000
1!
1G
1H
02
#7500000
0!
0G
0H
12
#7525000
1!
1G
1H
02
#7550000
0!
0G
0H
12
#7575000
1!
1G
1H
02
#7600000
0!
0G
0H
12
#7625000
1!
1G
1H
02
#7650000
0!
0G
0H
12
#7675000
1!
1G
1H
02
#7700000
0!
0G
0H
12
#7725000
1!
1G
1H
02
#7750000
0!
0G
0H
12
#7775000
1!
1G
1H
02
#7800000
0!
0G
0H
12
#7825000
1!
1G
1H
02
#7850000
0!
0G
0H
12
#7875000
1!
1G
1H
02
#7900000
0!
0G
0H
12
#7925000
1!
1G
1H
02
#7950000
0!
0G
0H
12
#7975000
1!
1G
1H
02
#8000000
0!
0G
0H
12
#8025000
1!
1G
1H
02
#8050000
0!
0G
0H
12
#8075000
1!
1G
1H
02
#8100000
0!
0G
0H
12
#8125000
1!
1G
1H
02
#8150000
0!
0G
0H
12
#8175000
1!
1G
1H
02
#8200000
0!
0G
0H
12
#8225000
1!
1G
1H
02
#8250000
0!
0G
0H
12
#8275000
1!
1G
1H
02
#8300000
0!
0G
0H
12
#8325000
1!
1G
1H
02
#8350000
0!
0G
0H
12
#8375000
1!
1G
1H
02
#8400000
0!
0G
0H
12
#8425000
1!
1G
1H
02
#8450000
0!
0G
0H
12
#8475000
1!
1G
1H
02
#8500000
0!
0G
0H
12
#8525000
1!
1G
1H
02
#8550000
0!
0G
0H
12
#8575000
1!
1G
1H
02
#8600000
0!
0G
0H
12
#8625000
1!
1G
1H
02
#8650000
0!
0G
0H
12
#8675000
1!
1G
1H
02
#8700000
0!
0G
0H
12
#8725000
1!
1G
1H
02
#8750000
0!
0G
0H
12
#8775000
1!
1G
1H
02
#8800000
0!
0G
0H
12
#8825000
1!
1G
1H
02
#8850000
0!
0G
0H
12
#8875000
1!
1G
1H
02
#8900000
0!
0G
0H
12
#8925000
1!
1G
1H
02
#8950000
0!
0G
0H
12
#8975000
1!
1G
1H
02
#9000000
0!
0G
0H
12
#9025000
1!
1G
1H
02
#9050000
0!
0G
0H
12
#9075000
1!
1G
1H
02
#9100000
0!
0G
0H
12
#9125000
1!
1G
1H
02
#9150000
0!
0G
0H
12
#9175000
1!
1G
1H
02
#9200000
0!
0G
0H
12
#9225000
1!
1G
1H
02
#9250000
0!
0G
0H
12
#9275000
1!
1G
1H
02
#9300000
0!
0G
0H
12
#9325000
1!
1G
1H
02
#9350000
0!
0G
0H
12
#9375000
1!
1G
1H
02
#9400000
0!
0G
0H
12
#9425000
1!
1G
1H
02
#9450000
0!
0G
0H
12
#9475000
1!
1G
1H
02
#9500000
0!
0G
0H
12
#9525000
1!
1G
1H
02
#9550000
0!
0G
0H
12
#9575000
1!
1G
1H
02
#9600000
0!
0G
0H
12
#9625000
1!
1G
1H
02
#9650000
0!
0G
0H
12
#9675000
1!
1G
1H
02
#9700000
0!
0G
0H
12
#9725000
1!
1G
1H
02
#9750000
0!
0G
0H
12
#9775000
1!
1G
1H
02
#9800000
0!
0G
0H
12
#9825000
1!
1G
1H
02
#9850000
0!
0G
0H
12
#9875000
1!
1G
1H
02
#9900000
0!
0G
0H
12
#9925000
1!
1G
1H
02
#9950000
0!
0G
0H
12
#9975000
1!
1G
1H
02
#10000000
0!
0G
0H
12
#10025000
1!
1G
1H
02
#10050000
0!
0G
0H
12
#10075000
1!
1G
1H
02
#10100000
0!
0G
0H
12
#10125000
1!
1G
1H
02
#10150000
0!
0G
0H
12
#10175000
1!
1G
1H
02
#10200000
0!
0G
0H
12
#10225000
1!
1G
1H
02
#10250000
0!
0G
0H
12
#10275000
1!
1G
1H
02
#10300000
0!
0G
0H
12
#10325000
1!
1G
1H
02
#10350000
0!
0G
0H
12
#10375000
1!
1G
1H
02
#10400000
0!
0G
0H
12
#10425000
1!
1G
1H
02
#10450000
0!
0G
0H
12
#10475000
1!
1G
1H
02
#10500000
0!
0G
0H
12
#10525000
1!
1G
1H
02
#10550000
0!
0G
0H
12
#10575000
1!
1G
1H
02
#10600000
0!
0G
0H
12
#10625000
1!
1G
1H
02
#10650000
0!
0G
0H
12
#10675000
1!
1G
1H
02
#10700000
0!
0G
0H
12
#10725000
1!
1G
1H
02
#10750000
0!
0G
0H
12
#10775000
1!
1G
1H
02
#10800000
0!
0G
0H
12
#10825000
1!
1G
1H
02
#10850000
0!
0G
0H
12
#10875000
1!
1G
1H
02
#10900000
0!
0G
0H
12
#10925000
1!
1G
1H
02
#10950000
0!
0G
0H
12
#10975000
1!
1G
1H
02
#11000000
0!
0G
0H
12
#11025000
1!
1G
1H
02
#11050000
0!
0G
0H
12
#11075000
1!
1G
1H
02
#11100000
0!
0G
0H
12
#11125000
1!
1G
1H
02
#11150000
0!
0G
0H
12
#11175000
1!
1G
1H
02
#11200000
0!
0G
0H
12
#11225000
1!
1G
1H
02
#11250000
0!
0G
0H
12
#11275000
1!
1G
1H
02
#11300000
0!
0G
0H
12
#11325000
1!
1G
1H
02
#11350000
0!
0G
0H
12
#11375000
1!
1G
1H
02
#11400000
0!
0G
0H
12
#11425000
1!
1G
1H
02
#11450000
0!
0G
0H
12
#11475000
1!
1G
1H
02
#11500000
0!
0G
0H
12
#11525000
1!
1G
1H
02
#11550000
0!
0G
0H
12
#11575000
1!
1G
1H
02
#11600000
0!
0G
0H
12
#11625000
1!
1G
1H
02
#11650000
0!
0G
0H
12
#11675000
1!
1G
1H
02
#11700000
0!
0G
0H
12
#11725000
1!
1G
1H
02
#11750000
0!
0G
0H
12
#11775000
1!
1G
1H
02
#11800000
0!
0G
0H
12
#11825000
1!
1G
1H
02
#11850000
0!
0G
0H
12
#11875000
1!
1G
1H
02
#11900000
0!
0G
0H
12
#11925000
1!
1G
1H
02
#11950000
0!
0G
0H
12
#11975000
1!
1G
1H
02
#12000000
0!
0G
0H
12
#12025000
1!
1G
1H
02
#12050000
0!
0G
0H
12
#12075000
1!
1G
1H
02
#12100000
0!
0G
0H
12
#12125000
1!
1G
1H
02
#12150000
0!
0G
0H
12
#12175000
1!
1G
1H
02
#12200000
0!
0G
0H
12
#12225000
1!
1G
1H
02
#12250000
0!
0G
0H
12
#12275000
1!
1G
1H
02
#12300000
0!
0G
0H
12
#12325000
1!
1G
1H
02
#12350000
0!
0G
0H
12
#12375000
1!
1G
1H
02
#12400000
0!
0G
0H
12
#12425000
1!
1G
1H
02
#12450000
0!
0G
0H
12
#12475000
1!
1G
1H
02
#12500000
0!
0G
0H
12
#12525000
1!
1G
1H
02
#12550000
0!
0G
0H
12
#12575000
1!
1G
1H
02
#12600000
0!
0G
0H
12
#12625000
1!
1G
1H
02
#12650000
0!
0G
0H
12
#12675000
1!
1G
1H
02
#12700000
0!
0G
0H
12
#12725000
1!
1G
1H
02
#12750000
0!
0G
0H
12
#12775000
1!
1G
1H
02
#12800000
0!
0G
0H
12
#12825000
1!
1G
1H
02
#12850000
0!
0G
0H
12
#12875000
1!
1G
1H
02
#12900000
0!
0G
0H
12
#12925000
1!
1G
1H
02
#12950000
0!
0G
0H
12
#12975000
1!
1G
1H
02
#13000000
0!
0G
0H
12
